{
  "project_info": {
    "project_number": "784781478102",
    "firebase_url": "https://todo-df65e.firebaseio.com",
    "project_id": "todo-df65e",
    "storage_bucket": "todo-df65e.appspot.com"
  },
  "client": [
    {
      "client_info": {
        "mobilesdk_app_id": "1:784781478102:android:a300079dadf8f49a",
        "android_client_info": {
          "package_name": "com.example.sebastian.todo_list"
        }
      },
      "oauth_client": [
        {
          "client_id": "784781478102-a4v13cm2eetpgnfhgtgj8fcr8jlla01t.apps.googleusercontent.com",
          "client_type": 3
        }
      ],
      "api_key": [
        {
          "current_key": "AIzaSyDXuR5ZYXw9tCgH8gVfvNa1-JmW2fms1q4"
        }
      ],
      "services": {
        "appinvite_service": {
          "other_platform_oauth_client": [
            {
              "client_id": "784781478102-a4v13cm2eetpgnfhgtgj8fcr8jlla01t.apps.googleusercontent.com",
              "client_type": 3
            },
            {
              "client_id": "784781478102-s39qr16lde9n5igkk3uvneg98e69ma3i.apps.googleusercontent.com",
              "client_type": 2,
              "ios_info": {
                "bundle_id": "sdfdgfh"
              }
            }
          ]
        }
      }
    },
    {
      "client_info": {
        "mobilesdk_app_id": "1:784781478102:android:e8afe87836490b52",
        "android_client_info": {
          "package_name": "com.example.time_fighter"
        }
      },
      "oauth_client": [
        {
          "client_id": "784781478102-a4v13cm2eetpgnfhgtgj8fcr8jlla01t.apps.googleusercontent.com",
          "client_type": 3
        }
      ],
      "api_key": [
        {
          "current_key": "AIzaSyDXuR5ZYXw9tCgH8gVfvNa1-JmW2fms1q4"
        }
      ],
      "services": {
        "appinvite_service": {
          "other_platform_oauth_client": [
            {
              "client_id": "784781478102-a4v13cm2eetpgnfhgtgj8fcr8jlla01t.apps.googleusercontent.com",
              "client_type": 3
            },
            {
              "client_id": "784781478102-s39qr16lde9n5igkk3uvneg98e69ma3i.apps.googleusercontent.com",
              "client_type": 2,
              "ios_info": {
                "bundle_id": "sdfdgfh"
              }
            }
          ]
        }
      }
    }
  ],
  "configuration_version": "1"
}